Project 1
…
## # A tibble: 2 x 3
##   OverOrUnderOneMillionPopulation mean_PercentFoodInsecure sd_PercentFoodInsecu…
##   <chr>                                              <dbl>                 <dbl>
## 1 over                                                13.9                 0.785
## 2 under                                               15.2                 2.63

summarize(texasfulljoin)

## # A tibble: 1 x 0

texasfulljoin %>% mutate_if(is.character, as.factor)

## # A tibble: 246 x 8
##    PercentObesity PercentDiabetes County PercentLowBirth… PercentSmokers
##             <dbl>           <dbl> <fct>             <dbl>          <dbl>
##  1           20.3             6.6 Crane              8.03           15.9
##  2           29.6            11.9 Yoakum             6.44           16.5
##  3           26.3             7.7 Glass…            NA              18.2
##  4           21.5             9.9 Sterl…            NA              17.9
##  5           31.4             7.4 Andre…             7.03           17.3
##  6           29.1            13.4 Reeves             8.35           17.5
##  7           19.6             5.7 Concho             8.14           19.4
##  8           31               6.2 Martin             7.95           17.7
##  9           30.9            14.1 Rockw…             7.73           13.8
## 10           34.5             5.9 Midla…             8.17           15.0
## # … with 236 more rows, and 3 more variables: PercentCompletedHighSchool <dbl>,
## #   PercentFoodInsecure <dbl>, OverOrUnderOneMillionPopulation <fct>
…
#PAM CLUSTERING 

library(cluster)

texasfulljoin2%>%ungroup()%>%mutate(gmeanFI=mean(PercentFoodInsecure),gmeanHS=mean(PercentCompletedHighSchool))%>%
group_by(gmeanFI,gmeanHS,PercentSmokers)%>%
summarize(meanFI=mean(PercentFoodInsecure), meanHS=mean(PercentCompletedHighSchool),
WSS=sum((PercentFoodInsecure-meanFI)^2+(PercentCompletedHighSchool-meanHS)^2),
BSS=sum((meanFI-gmeanFI)^2+(meanHS-gmeanHS)^2))%>%ungroup()%>%
summarize(BSS=sum(BSS),WSS=sum(WSS))

## # A tibble: 1 x 2
##      BSS   WSS
##    <dbl> <dbl>
## 1 19584.     0

kmeans1 <- kmeans(texasfulljoin2[!is.na(texasfulljoin2)], 3)
kmeans1

## K-means clustering with 3 clusters of sizes 1075, 283, 328
## 
## Cluster means:
##       [,1]
## 1 13.68819
## 2 34.55895
## 3 80.76208
## 
## Clustering vector:
##   [1] 1 2 2 1 2 2 1 2 2 2 2 2 2 2 2 2 2 2 2 2 2 2 2 2 2 1 2 2 1 2 1 2 2 2 2 2 2
##  [38] 2 2 2 2 2 2 2 1 2 2 1 2 2 2 1 2 1 1 2 2 2 1 2 2 1 1 1 2 1 2 2 2 2 2 2 1 2
##  [75] 2 2 2 2 2 2 1 2 2 1 2 2 2 1 2 2 2 1 2 2 2 2 2 2 2 2
##  [ reached getOption("max.print") -- omitted 1586 entries ]
## 
## Within cluster sum of squares by cluster:
## [1] 28161.12 16855.20 26334.75
##  (between_SS / total_SS =  94.1 %)
## 
## Available components:
## 
## [1] "cluster"      "centers"      "totss"        "withinss"     "tot.withinss"
## [6] "betweenss"    "size"         "iter"         "ifault"

kmeans1$size

## [1] 1075  283  328

kmeans1$centers

##       [,1]
## 1 13.68819
## 2 34.55895
## 3 80.76208

kmeans1$cluster

##   [1] 1 2 2 1 2 2 1 2 2 2 2 2 2 2 2 2 2 2 2 2 2 2 2 2 2 1 2 2 1 2 1 2 2 2 2 2 2
##  [38] 2 2 2 2 2 2 2 1 2 2 1 2 2 2 1 2 1 1 2 2 2 1 2 2 1 1 1 2 1 2 2 2 2 2 2 1 2
##  [75] 2 2 2 2 2 2 1 2 2 1 2 2 2 1 2 2 2 1 2 2 2 2 2 2 2 2
##  [ reached getOption("max.print") -- omitted 1586 entries ]
…
